Lab 2
…
It looks like we have some duplicated information, probably from a
merge between different datasets. For example, id,
ID, and IATA all seem to refer to the
International Air Transport Association (IATA) 3-letter airport codes.
Lets check the number of times those columns match:

summary <- airports %>% group_by(id) %>% summarize(across(c('ID','IATA'), n_distinct))
summary

## # A tibble: 5,623 x 3
##    id         ID  IATA
##    <chr>   <int> <int>
##  1 49.9844     1     1
##  2 AAA         1     1
##  3 AAC         1     1
##  4 AAE         1     1
##  5 AAF         1     1
##  6 AAG         1     1
##  7 AAL         1     1
##  8 AAM         1     1
##  9 AAN         1     1
## 10 AAQ         1     1
## # ... with 5,613 more rows
…
Since id and ID have 0 missing values, but
IATA has 750 NAs, there are some airports
contained in the dataset(s) that used id / ID
which are missing from the dataset that used IATA. Lets
keep the id column to preserve these airports, and explore
what the rows with missing IATA are like.

airports %>% filter(is.na(IATA))

## # A tibble: 750 x 19
##    id    latitude longitude    X1 ID    airportID airport Label country IATA 
##    <chr>    <dbl>     <dbl> <dbl> <chr>     <dbl> <chr>   <chr> <chr>   <chr>
##  1 AAG     -24.1     -49.8      5 AAG          NA <NA>    <NA>  <NA>    <NA> 
##  2 ACU       9.18    -78.0     42 ACU          NA <NA>    <NA>  <NA>    <NA> 
##  3 AFB      46.8       6.92    74 AFB          NA <NA>    <NA>  <NA>    <NA> 
##  4 AGL      -9.33    149.      86 AGL          NA <NA>    <NA>  <NA>    <NA> 
##  5 AGM      65.6     -37.6     87 AGM          NA <NA>    <NA>  <NA>    <NA> 
##  6 AIC       7.1     171.     105 AIC          NA <NA>    <NA>  <NA>    <NA> 
##  7 AIF     -22.6     -50.5    107 AIF          NA <NA>    <NA>  <NA>    <NA> 
##  8 AIM      10.2     170.     108 AIM          NA <NA>    <NA>  <NA>    <NA> 
##  9 ALZ      56.9    -154.     157 ALZ          NA <NA>    <NA>  <NA>    <NA> 
## 10 AMJ     -16.2     -40.7    162 AMJ          NA <NA>    <NA>  <NA>    <NA> 
## # ... with 740 more rows, and 9 more variables: ICAO <chr>, latitude.y <dbl>,
## #   longitude.y <dbl>, altitude <dbl>, timezone <dbl>, DST <chr>, TZ <chr>,
## #   type <chr>, source <chr>
…
colSums(is.na(routes))

##       Source       Target      airline      country airline_name 
##            0            0            0          895          857

There are also some ambiguous names here, possibly indicative of
repeated data. What does country refer to?

routes %>% group_by(Source) %>% summarize(countries = n_distinct(country))

## # A tibble: 3,409 x 2
##    Source countries
##    <chr>      <int>
##  1 AAE            2
##  2 AAL           11
##  3 AAN            2
##  4 AAQ            1
##  5 AAR            3
##  6 AAT            3
##  7 AAX            2
##  8 AAY            1
##  9 ABA            2
## 10 ABB            2
## # ... with 3,399 more rows

routes %>% group_by(Target) %>% summarize(countries = n_distinct(country))

## # A tibble: 3,418 x 2
##    Target countries
##    <chr>      <int>
##  1 AAE            2
##  2 AAL           12
##  3 AAN            2
##  4 AAQ            1
##  5 AAR            3
##  6 AAT            3
##  7 AAX            2
##  8 AAY            2
##  9 ABA            2
## 10 ABB            2
## # ... with 3,408 more rows

routes %>% group_by(airline) %>% summarize(countries = n_distinct(country))

## # A tibble: 568 x 2
##    airline countries
##    <chr>       <int>
##  1 2B              1
##  2 2G              2
##  3 2I              1
##  4 2J              1
##  5 2K              1
##  6 2L              1
##  7 2N              1
##  8 2O              1
##  9 2P              1
## 10 2Z              1
## # ... with 558 more rows
…
mult_airlines <- routes %>% group_by(airline) %>% summarize(countries = n_distinct(country)) %>% filter(countries > 1) %>% .$airline
mult_airlines

##   [1] "2G" "3S" "4G" "5Z" "6I" "7R" "8B" "8D" "8L" "8M" "8Q" "8V" "9R" "A2" "AD"
##  [16] "AP" "AW" "BF" "BM" "BU" "BX" "CC" "CN" "D7" "DH" "DN" "DV" "E2" "E5" "E7"
##  [31] "E8" "E9" "EO" "F5" "FY" "G3" "G8" "GK" "GL" "GR" "GS" "GY" "HK" "HN" "HO"
##  [46] "HQ" "HR" "HW" "I4" "I6" "I9" "J4" "J9" "JH" "JY" "K5" "K6" "KY" "LJ" "LM"
##  [61] "LT" "M3" "M4" "MO" "MR" "MY" "OD" "OZ" "P9" "PC" "PI" "PL" "PQ" "PS" "Q3"
##  [76] "Q9" "QC" "QH" "QN" "QS" "RX" "S5" "S6" "S9" "SG" "SH" "SX" "TD" "TJ" "TL"
##  [91] "TO" "TT" "TW" "TY" "U2" "U7" "UE" "V7" "V9" "VA" "VB" "VJ" "VY" "W2" "W3"
## [106] "W4" "W9" "X7" "Y5" "Y8" "YT" "ZB" "ZE"

routes %>% select(airline, airline_name, country) %>% filter(airline %in% mult_airlines) %>% unique()

## # A tibble: 256 x 3
##    airline airline_name               country      
##    <chr>   <chr>                      <chr>        
##  1 2G      Cargoitalia                Italy        
##  2 2G      San Juan Airlines          United States
##  3 3S      Aeroland Airways           Greece       
##  4 3S      Air Antilles Express       Guadeloupe   
##  5 4G      Advance Leasing Company    United States
##  6 4G      Gazpromavia                Russia       
##  7 5Z      Bismillah Airlines         Bangladesh   
##  8 5Z      VivaColombia               Colombia     
##  9 6I      International Business Air Sweden       
## 10 6I      Fly 6ix                    Sierra Leone 
## # ... with 246 more rows
…
